// Jest Snapshot v1, https://goo.gl/fbAQLP

exports[`Navbar Renders correctly 1`] = `
<div
  className="sc-bdfBQB lfCfsQ"
>
  <nav
    className="sc-gsTEea fBthSb"
  >
    <p
      className="sc-dlfnuX gxzSpa"
    >
      title
    </p>
    <div
      className="sc-jSgvzq dZBHHU"
      onClick={[Function]}
      tabIndex={0}
    >
      <div
        className="sc-hKgJUU hMJXjN"
      />
      <div
        className="sc-hKgJUU hMJXjN"
      />
      <div
        className="sc-hKgJUU hMJXjN"
      />
    </div>
  </nav>
</div>
`;
